{
  "data": [
    {
      "identifier": "00000000-0000-0000-0000-000000000000",
      "name": "test-user-0",
      "quota": 200,
      "tenant": {
        "identifier": "000000000",
        "name": "test-tenant-0"
      },
      "s3endpoints": [
        "https:\/\/ch1-s3.xelon.io"
      ],
      "isReplicated": true,
      "createdAt": "2025-10-27T14:19:56+01:00",
      "sizeUsedGb": 10.4
    },
    {
      "identifier": "11111111-1111-1111-1111-111111111111",
      "name": "test-user-1",
      "quota": 500,
      "tenant": {
        "identifier": "111111111",
        "name": "test-tenant-1"
      },
      "s3endpoints": [
        "https:\/\/zh1-s3.xelon.io"
      ],
      "isReplicated": false,
      "createdAt": "2025-10-29T14:19:56+01:00",
      "sizeUsedGb": 0
    }
  ],
  "meta": {
    "total": 10,
    "lastPage": 2,
    "perPage": 5,
    "currentPage": 1,
    "from": 1,
    "to": 5
  }
}
