{
  "data": [
    {
      "identifier": "user-1",
      "name": "John",
      "surname": "Doe",
      "email": "john.doe@example.com",
      "jobTitle": "sysadmin_devops",
      "tenantIdentifier": "tenant-1"
    },
    {
      "identifier": "user-2",
      "name": "Jane",
      "surname": "Doe",
      "email": "jane.doe@example.com",
      "jobTitle": "ceo",
      "tenantIdentifier": "tenant-1"
    }
  ],
  "meta": {
    "total": 3,
    "lastPage": 2,
    "perPage": 2,
    "currentPage": 1,
    "from": 1,
    "to": 2
  }
}
